{"data":{"metaData":{"siteName":"Giftbox Promosindo","siteDescription":"Giftbox Promosindo"},"allProduct":{"totalCount":2,"pageInfo":{"totalPages":2,"currentPage":1},"edges":[{"node":{"id":"c9455050bc4abc40d0c53569847e51a2","title":"Writing In Markdown 2","timeToRead":3,"description":"Markdown post content stress test. See how your post content is being styled with Tailwind CSS.","date":"23 May 2019","path":"/product/writing-in-markdown-2"}}]}},"context":{}}