{"data":{"metaData":{"siteName":"Giftbox Promosindo","siteDescription":"Giftbox Promosindo"},"allProduct":{"totalCount":2,"pageInfo":{"totalPages":2,"currentPage":2},"edges":[{"node":{"id":"772d0c1f378366be0c0619184527cc93","title":"Markdown styling","timeToRead":3,"description":"Markdown post content stress test. See how your post content is being styled with Tailwind CSS.","date":"21 May 2019","path":"/product/markdown-styling"}}]}},"context":{}}