{"hash":"23f5165b679445ff4f404542eb88244f337f4405","data":{"metadata":{"siteName":"Giftbox Promosindo","siteDescription":"Giftbox Promosindo"},"allProduct":{"totalCount":10,"pageInfo":{"totalPages":4,"currentPage":1},"edges":[{"node":{"id":"2774ee15aab6044147dcf94306df3d10","title":"Vacuum Flask","timeToRead":1,"excerpt":"Vacuum Flask Excerpt.","date":"23 May 2019","path":"/product/vacuum-flask/","image":{"type":"image","mimeType":"image/png","src":"/assets/static/vacuum-flask.d12e930.4b7a099.png","size":{"width":700,"height":700},"sizes":"(max-width: 700px) 100vw, 700px","srcset":["/assets/static/vacuum-flask.1b91758.4b7a099.png 480w","/assets/static/vacuum-flask.d12e930.4b7a099.png 700w"],"dataUri":"data:image/svg+xml,%3csvg fill='none' viewBox='0 0 700 700' xmlns='http://www.w3.org/2000/svg' xmlns:xlink='http://www.w3.org/1999/xlink'%3e%3cdefs%3e%3cfilter id='__svg-blur-1'%3e%3cfeGaussianBlur in='SourceGraphic' stdDeviation='40'/%3e%3c/filter%3e%3c/defs%3e%3cimage x='0' y='0' filter='url(%23__svg-blur-1)' width='700' height='700' xlink:href='data:image/png%3bbase64%2ciVBORw0KGgoAAAANSUhEUgAAAEAAAABACAYAAACqaXHeAAAACXBIWXMAAAsSAAALEgHS3X78AAATKElEQVR42uWbiXNTV5bG%2bY%2bmumpqpqbTmZmaqUnPpBMSSAMBkhAInQBZCAkEQtjMntCsMTYQCLuNsc3iVTbebVnWYlv7vu%2b75H3XN%2bfeJ8myDbEJmMkQUbdk5Pck3d/7zjnfue96CV7oI4VUKvM8c2Reyxz3oh5LXuj0U9MQZgPITF74GS8XgLkTTD1BHTOPeykAPH5SKUxNTWBycjw7Uqmpx8N6GQDMfk70xeHxu%2bDyOuD02uH0WBEMeTE6NjJXJYushCWLP/npyUxNTSIcD8EdcMEddENvVUNtkMFkV8PqNMDhNmFwuH8GhNTLFAKJZJRP3EOjrv4afirYils/fYXaB99DpWqAzaUjNRgxNj42T774f6SAzAQmJyfgDTjhpcmL6m/im61/Rt7Ot3C9YBNKr36JipLd0OtbYHUZEYkHXz4Ao6MjsLnNMNrUOHnsE6xe9gfs%2bOw13CjcglsXv8CFEx%2bgvfEyHWOEj0DlJsWXAsDwyBAsdgPUein27VyFlW/9AzatfxVnDr%2bPs0c/wNHdy1BTdhx2t54SpI0UM/lbApCaZWRyB%2bb5v3DuOMW1xWEgBShx9uQX2Lz%2bFWz75L/w3dbXcfjbd3Bk11LUV%2bbD7bNSqDhemB9YMIDMxGZk6HkGZpwzBX/IA6NVBbGkCnt2vI317/4B3%2b97B8f3vo3zf98Iq0VBidCM2G8tBzxu8r/GAI2NjVKps8Bs06BLKsKNq8dQVnICtVWFsDs1cJP0XR4LJibGp8/7bYXA9JcZGkoiEfcjFnYhGnYiFnWjLxHA0GAM42PDM87JnDcxMQaTRQ2DpQe%2boBNxMkSJ/iSGRkao/g8imghjiJ5nG6cFqe1XhsuSp01m/X0hSNtvQFx/Dj0d12HouQ%2bb7hHclk4EXL0I%2b/SIBkxIRJyYyDo7IaMPjw5DY1Rw4%2bOgcuf22RCK%2bMkZxtA/2I/%2boYGsG3zS5B/3vRbWazwjgKkpYRJadT0e3vwKLQ%2bPQtl2Babue7ATAJ9ViojfgGTcjUTYhphXh2TUg4yXiwStaGu4DFlnCVQ9Ish7m6DSdZD09YhEvYgngojFPPC6lQgHzb9wVVNPnOSvUcJTK0BBE6gq2onWyu%2bhaCyATnoTTl0dfOYORDxquvJ2xEJWxPw6RIMWboD4eR238PDaZ2go2oHam9vR2lEGuaoFFqsSHlsP/DY5/HYpfLZOeCxijI0Opz98isJiALFEhEaYQEXSiklS2AxghI4bp9D6tWGwYABCDE9A0nQZjffy0FH9PToqjkHacgMKSQW03Q30xeUYTHjRRyroC1tJCQ46Z5Sf29VyHZU3voSIJl95dRsam4vQ1dMAjb4LdpOMJq9A0MkgdMFr68JIuifwBR1Q0%2b9NZKBYyATDPg6ibyDBAbAxMMRAjMypVs8dwOjoIE4d3oDD25fh9L41uHzyY7SLH0CmbIHdpUfQZ4JV3QIzTUzVVgp5yy2eFNmjra4QlRQ6dbd24OGVL1HXeAtdvY%2bg1HfA59IiROphk/fbJZRPOijJJnjzpDMpCIAUFqcaXr8DkVgIyf4En/TQyCDllSH%2bzJoodnxuE/YcAQjx398fxe6tb%2bDzNf%2bCTSv/CZ%2bu%2bWfU1t1At7oVZrsOLrMM4qpz6G29ht6mAsgbz5MahJreXHUKFVc/hejGVlRc3oLKikJIVY3oVraSekQIOCRc/l5rB5zGZgIXxcTkOPkGJQzWHjJRlDg9BuokHfBHCETCRxMfIgAjPLkO0Zicmpqz7vDMAIT4F944Fg1g9xev4%2bt1/4rP176CLz94BRWVlyEnBejNSjjpSum77kAvLYGaEmRPcyElRS8/t7W1FNX3foCo7CBEd/ej4s5hVJWfRQ0NKYWHzy6jXCCHx6GgoSS10eToqoo770PeU0%2bhIobGIEFzVzl6NI1kl80YGIyTEuJI9gURjTrJZww9dSVYspD6n6kAHjIxO7e8RgBeJQB/4kqoqLoCLcWo2UFGxtoNo6Icms5bULX8hO6Gc4hFbJgggHKNBDK1BN06GTSmXrLEGjicdEV9FvjCboTiYeoCo%2bQFYgjFwpTYphCmZFp88SOUX/kYdwo24OHdPDRKStEhq6AySiHjUiDgliPokSPgFJNqIrPWEp6TArIAXBZ8/fF/8Cv/2Zo/4tNV/4ifL%2bVRDmiDUqtAM6lBSVdd1XEDypbzHEA0ZAM7W64Sk%2bTFUBu6yQfoYffYSM5uknMQQZpwmLJ7pC%2bKSDJKrwUwNjGJoFePu5c2oIIAlBW8h3uUQOs77qJBXErVowdhr4Y8Bw2fGkG3AoMD4VkLq6lnV0AuAANdvZ2b/h27Pn4Vuzb%2bG3Z8%2bCdse/%2bPyNu2Aid3rUH%2bnuWQP6KJN1%2bFrO4Umsv2wEtyZl9DpuqAVNlBSU9BMa2lvt8MFyU1b8iLQDSIcDwNIQtgCi6bAqUEoPLaJpRfWIey61%2bjobMcHYoq2OxKcqFW8h5aRLxKAiAnkxZ43goQSGayq1bdjkNfvYYLB9/C3XOrUfrjWlw98ibu5a9Ga/l2aCRX0R82kAnqgannFgHYBodZzM%2bVqdrRxZSSA8DpEwCwCYfSANjwkzscn0jBbu7EnfPv4uHldbhXSJ93aTNqmq6jR9eErq5KCjkxv/phTy%2bFgBT9Sf9TL6c9HQCNGAe2/RkXj76NknOrUH5%2bNcrOLUdL8d%2bgatgDe%2b8NDITpirilMHffREs5ASCLLAAQE4BO9Ork0HMAFlKAkwB4%2bIRnA2DLYg63BmXlR1F59wAqqHzWlHyHytLDqKs6g%2bbqM3CYGhEO6BDkw4iBgdhiKGA6BHTaTg6g4MgyFP%2b4hgCsRenp5Wi8%2bRHkNd/AJL%2bIZJBiMweA09LFz2Xy71K2CwAsmiwAtj44G4Av7Oc9gcNnhVjVBgWZpV6DHDqLClaHHi6vBX7WhCXDSA7EyRQl0TfYh0HyBs%2b5CsxMgnqdlAM4f2Q5ihgASkzl%2bSvReHsjFKKdMMkKEfdRVnaJYZRfoxD4Gi7qEZDOAV1U86cBCCEgAPDNAuDDCAdgQWt3PVWOTmipg7S6TXAHXZQzAggnyRr3UwmkiffTYOZocHDg%2bZfBXAAmYzf2E4DCQ8tw%2b%2bwalJICygveRWPRJ%2biu3w0zKSDuI0trb4dB9jOaSr%2bkOJULAJgCeqcBWJzTANiEg%2bTwZiiADI6TFNDa/YgAkAcwdcNMjZPTZ6ffewhYkCfMOFniBPUFMVLCwGD/4irAalHiwNcMwFsoOvsulaY1uE/Jqal4EwdgkhdSApRQY9MEPamhsXQrZXJ5VgGSNAAdB2CCw/tLAEZJ6la0EwCFlsonWWITyd/htXEAwRgDECEAcQEAqWHRQ8Bh1yJvOyXBQ0tRfE4A8ODCGjRmAeQj6m6Hz9JAXWIBGu5uhZuanGkALejRysg4qck4MQB2fpMkA4CFARsCgDG4qPlpVwgAVEY59w8MAEucwViAAIT4xOMDiwgg1wk6ybkdIgCsDAoKWI17F9fgEYWAou5bAlCAiKsNXnMdtNILaCj5Ah579wwFCABUcwAwLxBKQ/CGfAIA8gktinrIde0CAIeOA2CqCUT9pBYGIMbDIEotci6A59YM5SrA7Tbi4A4Kgbw3UXRqBeWAVVwBDaQARf13lPmvIOpqJwAiAlAAUfFn5Ot75wDQmdXpELDTZKYBBHMAjI2NERw7WhV1kGsZABmMWQU8CcDg4irAS%2bXn4Df/jcIDb6Do9AqugAcX1qLxzmZygHthUlwlAB3wmGqhlZyHqOhT7gQzADp7WmYAyE2CjwPgCdpJASLICIDSKKX%2bQUsW2ppVAEuE0b4ozwPMRg8sdgj46Qsf3E4A9v8FRWfewT2qAA8uvYfGuwSgYR81QpcRcTbDbayGRnwWolub4XOqcgA0z1FAbgjMARCiEJATAA05SKMEBpsKNmrI2DlC6WQAWCKM8Yqw6DkgGHQib8frKDjwPyg%2bLQCouLQGzSVCCBhkBQg7muAyPISy/e%2bovfExdWzqdBlszypAOweA9zEAxunZSQqohZQA9FAp1FuV0wDSCoiQGYr1R8kXhBcPQCoNIEzZ9%2bDON5BPAIo4gFUcgFAG98JAcR%2b0N8KpL0dvyzEC8AkCHq0AoLd9ugqYWRUwZgFk%2boFgGkJGAT5ye80ZAPqZAAJzAIQWH0CELGverqXIP/gXFJ9ZkVbAWjRTDuiu3w89Zf6gvQkOXRlUzcdRc30TAl4DP1eunA4BoQrMBRCYAWBEACCv4SHQa%2bikEMhRQEQAwBIhCwP2vHgA0itCUbKgh759C/mH3kDx2ZVkgtai4qd1aCr5jJLgfsr8hQjYSAEEgCmgminAZ0j3Au0cQLdGSq5uPgBeDoD5/RZZDaRqqh56BqB3Tg6YCWBwcQHE4yEBwME3uQ%2b4f%2bF9VFxZj0YCIKvfB11XAQLWR3BqS9HTfBjVNzch6DfycyW9bVkAC1PAGIIRD1rltRxAr35uEmRmKAMglAguPoAkWc8ju5ehgIxQcf57uHfpQ1T8vCELQCv5EX6LiADcQW/zIVRTFQgFzFkA4u4mQQFGJbk6I18Vmm6JBQBseIJengSDUR8HwHyA0iAjANo0ACdPnLkK4ACGFxsAmY0je/%2bKwiNvoyT/fTz4aSMB2EiOTwCg6TwDr%2bkhASiGsvkoaoo%2bRyhknQFAoe6CmgAYbQaajDXdEs8EkAmBYMwnOMEsAA0HwM5hADIKYImQARhabAB9BODY/pUoPLqcA7h/aT2FwAY8uvMppHV7oRYzAJUE4C7lgOOoLdmGSNguAOhp5QDkDICBLYrq%2bZqAYIY83P9nILgDHrLCw2SN/WibAUCbDQGhf5gFYGRocQH0U8Nx/MAqFDAABR8QgHWkgA8JwBZ0ifZA1XEaHjJBTi0rgz%2bgvnQnohEnP7eTAHQwAJouqAiAwZoLwD0LgBtDlNHDBKC9uw4KXQcHIDhBC7fPs5PgIgNI3xkmz/3DwdU4zwF8SCGwDpWUBBuKt0BWsxvq9lNwm2vJB9xDTysBKP%2bOKodwX6Bd3og2WT1karEQAhyAlTc8bMIZAOzK2snvDwz0IUqT6uhp4M0QB2DXcSvsngXgBShAeLO%2b/gS%2bz3sX%2bUeX4U7Beh4CHEDRZkird5H7O0l9QA1c%2bocE4AQa7u%2bl/sGKWCKBJomISlp92gvIqRJo0onQCqfXIewdJOmzBOiin/v7%2bykJeiHubeDtcG4IsE2WfpYEc0MgznLAIocAM0JH9ryD/CPLcfvHD6gV/ggVl9fj0e1N6KoiAG0n4TZUw6EVADQ93A81xbxSpcGjNhGaZXXo7G2mksZWhbS8FGYTIVUCVv6YEpxeFzweLxwEp1PZSGEjnpEEPXR8IDQrCcYfXwXmA/FU7TDbzpq3620U/LACdy5soBD4Gx5c3oC625shqfoWKvL/HnMdPJZH3BSJynZDb5DD5wvAbDZDpVdSGZSlFaDmCmAAnD4n3H4CQFffF/CRarxIJJL0uo2AEQDKAb0GSdYJPhYAhcDsJbGFbJp46iqQ9%2b07OLF3Ka6cXoviwo0opmT48NonaLn/DbqbTsBtEsGhr4JYdAxVRdupDLqEXWJkbFhtHx4epvjup/dKItmfRN9AH98dwuQ7MjKMsdFRfhuePVwBW7obZOsBUgKgnjZCs8og6w3Y6vCTwvcZb44Kb8JWXY/vW4UTu/8Tl0%2bsoLESN8%2buRdmljai99QUkoqOwqO9BI72IzppdlAO%2bg5mkHg5HyUQl%2bTrfQjdY8SU4nxlNZIUlymYoCILW3EtdpJEvjGZWk9nEMyPZlyCIo/yeAttnuJAwWLLwra6T9OZj6GyrxY9HP8SlY0tx%2b9RSlJx7B9U/v4eW0i1kf4/xtQCtpBCdVQfRJCpCp0SC7u5uWCwWstJxfnUXusUuQHmhSVpNibCRrwzrrT0wO3WweczcDXI7HA8ICqCSabaaYbPa0iGU4HZ6PggLBsCe2RXsHxiC2%2b2CvLMejdUXUFd2HI/uH0V77Sn0dFyDWdMCvbodeh31/FYHHA47fH4fn/zIyEg2n8y344sBZ%2bHi8jig1MlpsC5SWBp3UGXhdpj3EJQzqHpY7VbKMybY7Q7KOX6eQ8bHx58NwBwI7A8d6ItlJjFFL09Mgt/IHB0jhYxOcJWMjk3Qh0/w/X6T6eNzv0D2zm16G6BwC0v4f/qF6QQ8OcUnMkDhl0zGaWJRxGkk6Oe%2bvj6eS9jv2FZctg%2bRHctUlvuZzxQCj8ui2U0TM%2b7BpeaFmL1bl8qckcpuQ8jMO/v6And5pDC1IPU%2btQIed3KmJPKRYklmkm9LmaSrxJ%2bnJvmNVDYmMyMljKnsmEpPUJjaFH9P4X2y%2b4z5Z0zOCAt2HH%2b/yen3nOTfY%2boXwgnzbpxa8gs3xdJfMv0vNX3l537Q1Dz/n/UapqU%2b%2b3d4zPm5qpse08fNlnnuHqH5Nkos%2baXdMamcOH2uf8s3OwTmbMp5ulr%2bJLU%2bUw7I3eXNpP40%2b3bnHchNgvMdjwVVjV%2b7q3xeADz2Ui/mjxf%2bLx4LSoJTL/iPGX8zAKaTVc7PvxcAGVOSrfAv4G/4frMhkPo9hsDv5fG/PuX01/GsxDAAAAAASUVORK5CYII=' /%3e%3c/svg%3e"}}},{"node":{"id":"113f1e7689237d30dd71395541e2f7d4","title":"Mug Standard","timeToRead":1,"excerpt":"Mug Standard Excerpt.","date":"23 May 2019","path":"/product/mug-standard/","image":{"type":"image","mimeType":"image/png","src":"/assets/static/white.d6356bc.7815772.png","size":{"width":999,"height":1000},"sizes":"(max-width: 999px) 100vw, 999px","srcset":["/assets/static/white.1b91758.7815772.png 480w","/assets/static/white.d6356bc.7815772.png 999w"],"dataUri":"data:image/svg+xml,%3csvg fill='none' viewBox='0 0 999 1000' xmlns='http://www.w3.org/2000/svg' xmlns:xlink='http://www.w3.org/1999/xlink'%3e%3cdefs%3e%3cfilter id='__svg-blur-5'%3e%3cfeGaussianBlur in='SourceGraphic' stdDeviation='40'/%3e%3c/filter%3e%3c/defs%3e%3cimage x='0' y='0' filter='url(%23__svg-blur-5)' width='999' height='1000' xlink:href='data:image/png%3bbase64%2ciVBORw0KGgoAAAANSUhEUgAAAEAAAABACAYAAACqaXHeAAAACXBIWXMAAC4jAAAuIwF4pT92AAAdvElEQVR42rWbCWxj%2bX3fn8RtatRInKRFgNhBgrpN6jYI4tQJUthB0yKAgcJZoyjaAE2Kxk3txolbIK7dIG0TJ93Duzuzu7O7M7uzc0qja2Z08r7v%2b74vUaIoUaQoUSJ1nyTfv7/f/70/%2bUhppvauK%2bCH90hKM%2b/3%2bX9/1/89cpzkJ51Kc6lUiptdmKOvQ%2bHQkM1mk1mMZhn3nB9CiOzw5OST6%2buVv7e6uvaZ5eLSP8gvZn85m01/PpNNfQHs17O59D%2bF46/GE7F/nEonPhsMBj5jsdt%2b2miz/Z1r9yae%2b%2b/nU4nhaMgv8/t9wx63k74XDgU4u90KRz/3sX8ymQwXDAY5p1P4x%2bF8SKvRXrqoZCr1mXg8/qVUPPFH%2bUz21WKxOF4qlYxL%2bcVoPp1ZySZT29lk%2bjCbSp5lkol2Jhnns6kEyaWTBN6DY4rPZ9Kt5cXc6WqxcAC2VVpeXC4WcuGlXNq4mElM5FLxNzLxyJ8mYpEvhyPRX7Q5nJ8cvA6X0yoL%2bN1DeP71b36Ny2WSXMgf/2jO37x5k8vlcmwlOb/f33V8uVz6Kbfb/VWX3XHT5XD63U5XI%2bDzEwBAlhYLpLi0TLKZDEnG4iQeiZJ4OAwWEiwUIrFQkCTgvWQkTBJgqViU5JJJUi4WSXNrkxw0tsk%2b2N5OnezWN0ljc4NsVcukslokAIWkE7HTVCy8GA8HFCG/9y/cHs%2bX9BbL32bX53Z7ZUfHPD0vFEpcLJb94QEcHR11nQ9HIpSqP%2bD/BZfT9Y7RYKg47HbidXuIx%2bUmDqudWM0W3maxtu1WW8ths7fcDlcLPm/7PN5OwOvphHxeHi3s91GLBPxdi4WDfDIa4ZdyWb66tsZvVtY7G%2bVyZ7200i4tLbWKi/kWKKG1mEm2wTpL2RQpLeUBWIGsLhcIqIIEvO5Fh8Py/VDQ81nmQ6N5KCi5sPTRVLCzs8MZjUbqfCAQ%2bA8QCkdet5eYDSZi0BnaRr2hZTIY2xaTuYMAwHneaXfwoAoeVEENAPE%2bt4v4RQt43H0W9HoIACEAggAEkoOQWMykwVJ8DsIkC%2bGSSUT5dDzSNfF1B44AJdFaTCcAXorkMwni9zhO4rH4/2A%2brK1VP5rze3t7mAOGabLJ5387CRL1wYXqtPoLk8HcMeqNPAAgYDxA4AECAQUQgEBAAX3mstuIG8zjANU4HZfM53JSGKAQCkMwPPcAGG/XokEfhI8fwiaIxkMY8NlkjFAgiWgHoFzEwn6ytrZOMrnif8NrjydyMl8oTH1S6IycSqX7wQCcnZ1x6XSaxn2tVru%2bsrwMjtjPDeC0XqvnDTpqCICY0AxGYjaaCIJgZjMLZgdzWHrmtFq65rJZwSwAyAow7ADDAUpxgjm6FvA4QSkuAOSmJoVBgQQDfDzo5%2bNhhBO6iEVTxOOLGPHa33z5rWGV0iBTqwzDigUt9U2pNHCKeQ334ov3ng3g/PycW11dpQpoNBpvHOzuktWlQisZi1GJo%2bNatYZoVWqih6NeoyUIhEExIhC9jliNemIx6OFoIFaTsXek50aAYwLDowHgGCGfmACMYC6bGcBYQDkIx9YHQzAnCcEx7Acwfjfv93ohDznbBoON%2bILRAOSvT0l90utcQxq1cZi91mpMz1fA%2bvq6TATw6vnpCdlrNFqHe/v8Tn2brJVWSSaVIkGfDy7WCs7qiU6tJmqlkqgVSqKSK4hGoSBaeK1TKQGSmhjUKmJE06iISaumZqQGr3VoamLW4ftwrlHSc6tBS2xGHShJD%2bFlBBVaiNdlh1iHnOLxQPLzQzIOErvNQ/Q6O6%2bUm3i12kyC4WTbYLJvKFQ688KC%2bq/UKv0XmG8atUWmklvouVpp5ebnVJcBHB8fo/QZgP9zfnZGmjuN1gnUl7PjU3IGQM5Oj8nRwR4tWfWNKqmUVghkbJJNxGmpC3p9sHpOWFkrrDaEByjDAgoxabUDAOBcp6FHMxxtoBgHhJAH8ocX84PPQ0KBEEnG09A35KG8puF1lPi8YeJ0BCDcIDdpHEQpt5KFOSPR6528xxMjSoURcpYNPvcQlcLIq1Xwv6gNv07VoNcMqZUiBJWBe/DgQT%2bAg4MDbmtriwLYaez8Zev8guw2mhTA6fEJOT05IednJ%2bTi7JS0AQ61c%2bHYgvcuAND5ySk5PTomJ4dHBJQDAJtks1YnlfUqWV8rk/LqGimDksorJbJWXIGStkJWlotgeCyR5UKRLOaLJJ%2bDviJdAMUtkng0TYL%2bKF11m9UN5oGQc4HyLESxYCYL80ZiMLh4pytMDHon0aisZH5Wfy6fN3bMRg/Rasxof4Z%2b2ayGIVCMqAR9P4DDw8MegJ2dP0cAqIDjwyP%2bDB0DCHg8Pz2T2Dk94vvMKCwwAAdqOUSIpL65RbZqm2Rzo0Zq1Q1SXa90gZSKq4LjuQLJZfIkk8zBymdINJwgQbrqIeL3hYnXg7KHHsTuhwTsZgB4%2bbyJN5m8xGrznj15Mht68ngmvjCvJpMT02RifPp8dkYJ0LyQv8z/U8gL9uGv/eG/B0VYuMdTc/2N0Ha9zkLg21IAzPnLAJgxAD3HD/cPqPPbW/Wu4xsVCJvyOnUcc0oJVFBcWoFucpnks4sCgJQAADN7KBgD5yPU3K4AjXuHzSdVAAJoud0x4vFGut4sLi59HbpDfnZ2njx6NN6amnoKpdsGOcPyuwIEC/VTpdL0AwDH6Qe7u7v/9YcCcCaEB4YJ/u4xhgAA2Gvu/j8AlC4BSIMCEhDzsUhyAEAI%2bg6AYA1A5XFCjFsIrj4C8HoTxOuN3sdrN%2brd1Ado67/h9XrJzMxM59HoWGt%2bRg55w7isUhk/KSRGw5DR5OoBODk5kQL45sX5Oc0BDMCVIXAirP45TZA96T8LAEpfAFCmADD2GQAWAgxAtAsgTJOfAMAvAWCmABYogCRxu8N3hAEu8cKTJzPUD6vVOmuGnuTJ4yetRyOjFwa9Ccq17Tv4mUFUwfjIuADg9PRUCuDrDADI%2bUoAgiLOxPdY/B93ARxAEnwegNUVIf4HFZACAHERAMsBXk%2bIuJxBCQA3ALB2FeD3QyPkidwSRveMzG53UD/sdvvnVSpVZ2Z6hkyMjbennzyFhGjIBiKFH8PPdTozJENtrxWG5MeS4NewDIIDFAA6NRgG0iO149O%2b5IcAWAK8DGCtCwCzPwOQTUP8J7IUQKSbBMMUAJa/qwGYKQBQwA1hhknKdFoDNzk5SWcatVoNrYiKTE1MtsZGHnRUSg2xWPy/Q1VgcAxHo3kBQLPR4Bo7ggLg%2bAfo3A8KgH3G4v8qABj/AoByFwA6L1VAH4BQnITFEPBACcTsbzX7aB7Qa93QA1iwB4BGyHIR8KeJyxW9JgDIyqZnNZxcLhcTnfJbauhcJycft8YejbZU0KwZdKY3aR5Q6WRDLAdsb29zzWaT/hEcf%2b9MAkAaApdWfqAEsvjf393DJErLH0uAvfJX7gLAEljILwGAfBcAVgAGABXgcQcoAFSA1ewHAK4uAEiGF4FAhjgckVfw2n3elGx%2bQQP9v5K2wBqN%2btemp2c6ExOPydjYWGt2ehraeZ2X%2bW3UW4UT6AIx9lkO%2bDcn4AwAaCMAdEoK4CrHBxMgAsAWmtV/KYC10tolALlMoa8EYghQACB/VIDTDhBsQaoCncZJmyAMAQgFAJAFQJHv4bV7PUnZ2Ng0p9VqhoTNEsenAEDpyZNpMj4%2b0YZcAH%2brbHjc4U9TAAbr0Le/DXmxVCpx%2b/v7FAAcv4qO7DWabXCmDwBz9iq7qgJcpQChBK4OKGAJAORJQgIgRBXQA4Dxj22wVu1A5ykAtdLWCvhzCOAvqMOuxAuPHk2jAriXX75GIczMzLqnp2dBAeNtqAY8AMCO8ouiAoZBYTBHx%2bPYDsvEtvhfHUIcgxMdKQCpCq56LU2AKH/WAfbin/UAvQogVQAtgQgAKoAAIE4TIDZBLAQs0PWhAhgAjdreCqICHOHv4rU7ndEXpqbkkOAM3N27D4YFAHNPKQBoigBAWwXDm9lk/4%2b0EmhNMnEvrcDtiSEAFeHLYhLrSENAqoJBEIMAGts7VyRAaRO0OtADLFIAGAJxUEA0jGUQOjy3CMAmJEGz0dtVAHaCGpW9JeSA0J8JAMKyicmnUOIM3P37DykA6Ajfn56ZJY9Gx1ujD0daKqUChibz94TBSC%2bbnV3guHK5LE2Cv7MHMby70wMgrQSDMNhnDACL/2eXQJT/8wAkaR8QgCEI5Y8AnA5UwBUAQAF%2bqAJWW%2bBbdOCxB2V3749C9ldzIyOPqD/TT2deRwWMjIwBgFEKAPqBD2iVUGpkCjm0xIlEAh2nxJq7u78NZRFlzF8FYDABDgLA%2bEcArAliLTAbgAQAvfi/WgEJ4vcLJdDl9BOn00fDwGzs5QCoBDyct/y%2bFNR2338Ruj%2b/7K0bN7mFBTk3OjpGATx%2b/PRvnj6dIQ8fjLZGHoy0FIp5otXqnuBnC/LZYa3ayHEOhwOlTwHs7e9/CR0AGfOsD2BODkr%2bqhBgQxDLAagABgDlvwrj8CCAbHqxmwMStA8AAF4JAFCAwxaASdDTBaBS2njIB20fALBaA39IFWALyl566WVubm4eZv5RCmByYupvsAo8uD/Senj/YWthboZo1Do6CT26/86QHkvh1NQUZn8KYP/g4DfrW3UeExlLgtJVfp5hBcD4ZwAGFcCGoP4KsNgFkKQAUgIAN8wAzkB39bEK4CisUQkANBoHr9U62zgM2Wyh32cA/vibf8w9fToNSfA%2bBTA2NvHG1NQTcu/ew9b9e/fbC7PTRKfW0z3Epy//Oac1AIAXX3wR9wSGxcnwC%2bBAGwFAQusCeJYKmOHv4eoz%2bbMegMW/VAGsAuDqMwApaIKSUgV4wmL8%2b2AU9tEmCBUAiY82QiKAjscTBwDBfycACMh%2b9mc/DU6Pc7du3ab%2bPHw4emdiYorcvfOgde/OvZYcFKBVa%2bn4rHw8NazSGru7QvQPDo8OfxUUcIEAIKFhGPQBGDxngPD38G8GAfQroNQdg/sB5CkANAZAmAIDNAQQAO7w4F4AAoD63wXg9sSI2eL813jtZrOLrvrIyAj37tsfUH/u3XmgGhudJHdu32/fuX2nJV%2bYg7/V3BV2jBUyhUIuANht7tI/2N3b%2b%2bX61tYZriYDcFUYDCqAbYIMVgDpPgCuvnQfgAHAJghDgAEIYw/QzQGgAKuXAtBrnTQHQPbvAXBHicFop5sdRqND9tIrL3GjI6PUJ519Yvj2B3fiIw/GyO337wKAD1sK%2bTzR6XR/LZRBlWxycorjZDIZzgMUwPbOzufAgZNnARjM/IMApPE/WAJxFwj3AZYLaL0SiADQWBXASRC3wRgAmwQANkIUggCAdzojxGRyfJkCMDmHX3/tGvf%2b%2b7doF/jezXd%2b4eZ7t3Zh9cn7Nz/sgALaShyI9JY/EDZG9DLprbEhsQ/4RXDgSASA3SCR5oGrFMD2ANgEONgF9krgSncjhIUAyh%2bNAcBOkO0DomEOsFk8fQA0EgDQBSKAf4HXbgIAeLx%2b/To9vvHG618FBZBb791u33z3A/7Bvfu8fGGemIyOLwidoHHYbDZ3R%2bIhIQR2PwsOHEgBMBU8qyJIAQzGfz%2bA0iUAwl5gP4CAP0LbYGEv4LICMA90AdhD0AcEvoTXDrP%2b8Ftvf8hdf%2bNNurLXXr/%2b4d3bD8i7N261br57qzM1MQkNlLzs90d%2bUhiGzEPf%2bc53Ling5wHAHjojzgNEGgZXGWuBpUOQNARYCywAKPb1ANI%2bAHMAjsJXAcAKwHJALwk6iB0A2O3R3xAaodDwa69%2bn/rxvb/8X596/fvX1t%2b98T556/o7ndvv32kpFhYIzAJK/PzJ1NSwRqnmLoUAKODTAKDBAKBjz4LApj82AiMA7ANYAzQ4A0gBsCTIAPQSYJQ2QT6YA3wevBnipSGAPYAeHO7mALWD1wEQKIEdiyX4axSALTz86suvvoDnr7z0yjfeunaDXHv9RvvGW%2b/xD%2b%2bOtHRqHbTBum8J9wbU/Q9/QBIcElvhn9na3NpGZwYBSEOBvcbPmeHfsDxwFQBhKxydL/ZVAQTAEiDeBcIeoAcAegCLUALxjpBO4xIAqOw8bo4AgLbJFPgVvPa5OcEpg0X5iVdefqXw2ivXybXX3m7funmbnxp7TBRz8iOD0fz3hXuF%2biGTwdwDsLW1NSRWgb8LK7glOnMJADO28kf4Oaw%2bUwACYCrAHCCNfwHAMq0AvSog7gbFxe1wABAABfglIWA1u0UAdgoBcwBA4PU6F4bAhc0W/hyt%2bXfH6IbntWtvvnb9jbfJ669eb9146xZ5cBeGILkKQkf9FD%2bfn50fnp%2bZ46anpy8D2Gk0fhLit9YFAI51nZU4Tg2cP9oTIDAA2AwhAOwHWCfIukCmAgwDBCHIPycCEIYgqgBfCMIgRG%2bJYStstQgAtGobvf0lHAUF2O3hU4cz/g%2bZH%2b/f%2bvAr16%2b9Q66/8S5/482b/N3bI/z46OOOfEFO1Br1bwkNkHL40g3S7fo2J8wC%2bz%2bxWdusMADoGHUUAUhAHImrf7S3R21fXH0GQLoj1G2HMRRQCQhAVEAmlaWWiCVpAgxCAkTn0XyiAiymngI0KhvrBikAKIPHMA98VrgJav7nH35w/%2bjme3eh9N3p3P3wIXk0MnmhUerg9zVT1Hm5Znjm6QxuivYDqNfrQkt8dPjJ2katPAjgWHT4oCt96A8ogCaEACbM5pUApBsiFbxBCgBW8aZoQagC6WQGEmAa4j/RBRCAPgANATjsXmKBEMAbIlrsALEEqmgl6OAWOYTAntXh%2bFQ4lPi3apX%2bfHRkkty/96j94P4jMv5oqj03Mw%2bzg3LHqDd/Rmh%2btFTpcrm8HwAkPuEewcH%2bJ2DVSqIzHQRxCCtMnd3fpzAOJSt/tLdLDiQAmPwvKQDCoIJhgCEA8i8uLpECKiAprH4sEqcAMAQoBNwPFO8JWkwuEYBNVICNKgABQB%2bwH41mNMtLVbwJSsYePW5PjD0ljydn27PTCzj6QvUw/K7ovOxK59nOMA2Bo4O/tVHdWN5r0JLWQafwiRF0FO14X3AaV1047pGDZn8CfNY4vI6lUEyE%2bIjdUhaSYDJL458BkIaAGwYhvC1uFgFg/OONUeFoo4nQCX1ALJInDluIB4V05mZUvEFrvlArDESj1EPZ0/5nKv0FoUKoVRpOPq%2b4AsDGBj22CJFtVKt5XNHG9nYPgOgwMwRwuLtLP9tvXJY/AyAdh9dR/gxAvkAKMAdkrwCA8kcALtoGu6ALdHYBCCYoAMuh3RqAXOCAOLe0tCorZHs9faZAozTuqhV6OiXKZzXDDqeDE2%2bIXP2YTK1WZc8KDm1U19O7TZDy9lYbj/u7DdHhZh8A6JcJtIwEf0fcRruUAGkpFHsBFv8IoJBfhB4gBwkwDQBYCMS6IUAVgHsBCMDgpE0QA6BW9hTgcIbhczsx6W0AykHkC%2brW/JxyXKXU/TwteXNKGT5OS2u/Vst95StfuRrA5uZG92HJaqWcQKcaUgDNHgRmB6LzDAA63xDjvy4FgKsvAbAMCRABLOZykATTkhzQA%2bCDQYgqwOzsAkD5S0KA10JP4HIH27Cqi7Oz8/q5ecX3FuSKX2E%2bKRZ6j/pC/HPvvP3Osx%2bUqm/Wuucb6%2bXIfgOc2dps7%2b3go6w7EOcNal3n8TUcBee3YfV3RABbZGezRrZr%2bMhrhWyUy6Qqxj8mwJIEAFNAIpboAsA7QkwBLnsPADZAAwA6Rr2HuFzhSrm8/lNSX2anVcNatWFIqPl6TqM0cF/87nef/6zgVm2D%2byUGoLwWHAQghUAN32uKChAB7NR7APBBqs3KOqmtr3cBoAJKYgJ8HgChBOIdIS%2bxmpw0B2APoFaa6bMBGAIqhbWDu8ROZ6iwf3T4CeFeoOEF%2bYJqWKcTngFSqbTQ9Sl%2bsIcla5V1zjo3Q88ra6vefXB8p77ZbuBDzI3tSwAYlD1m8PvN7TpC667%2bIADh4SjIAVgBcnmymMmSbEroAaLh2CUAGAIIAONbp0bHjSIACz4l0sY7RQ5HMHV8cvRjwt1h4WlxhULN3bv34Id7XLZWqXABh5UBcKJz26CAnQEA0uO%2b6DjaLjjfhNXvB1CmIcAaIBoCtAfoAciJOQABoPM9AIE%2bAHqNiWBp6wEwt/FeIQCIQt6iE2AolPro3xfYrFa4qM9Dz6trqxYKYLPWbm5vkcE8MOi8FIA0/gcB4OoPAsgmUxIFROk43FMAhIDZISoAARj7AFgt0CfYAn6sXPT2uD/20QFA3HO5VJL%2bQ%2bulFQOGADjSRqekeUBqzHHp6ksB1NYxAa71EiA4jy3wMsQ/AsinMxQA5gBBARFqAZ8wCLlxP9CCCrAKAJT9APCBCZvN72Q%2beDyRjwcgEvBTAGvFZfXecwBctfJS%2bbMECP8mrP4qAFgBAMU%2bAAVIgFIAkVBEVABWgCAA8AMAbxeAngIQQkC0Nt4ssVn99BHQb/zR/%2ba8nuhHBwAXz1lNQukorxQVIoAWOoVOSp2%2bCoB09fsBlED%2byyD/5a78pQAyiSSEAMo/TAGEAtgFBgCAD0LAIwAwAACNWcwBFqaAlt1KH54y0DH4xuTHAwCxzRk0agFAqTiPTokAeCbzQcefBYDJnwEARfUBQPkjgBxUAASQAAAxEYCgAAEAKsBuxU7QJigAAGAeUCvx4QhTC2%2bb261eurH38P7joYDvYwDYrW9xTouFhcA0OrRZqbTAIX5QBQyINP7ReVb/e/HP5C8AWClIE2AvBJIigOiAAhgA%2bqQnKAAaGmpqpZ5XqwwtHJWtFqdCaHnVQy6n76MD2IEQ8DhsFMBqcXm%2bsUW/vNSq16roGIXA8sGg84PyvwpAaWkJAKD88wAgBwAyXQUkuwqIQBcYogA8Li8NAYfNTSxGOy2D6LxWaeRhyCEqpf5C2C90jtAtcbNDBvbRARwe7nP5bJpuFa2vr/310e42qVdK5/Vahd/Z3EAneXCWlzoudb6//PXiHwGsLi8BgAJ9vH45nwP5Z2D1U3T10/EEBRAPC0kw6Bd6ACkALIV6nYnXqPQ8VYBCz8Ow08K9AqtVvC9osss%2b9ncH6%2bJEeHFBhqprxYXzoz1UQXu7Vm03qQK6EHjm/PNWX0iAxT4AS7ks/aKUACAJAOIkFYuTRCQKIRAhIaoAP/G6oM934LfUXDwoAEZeE69V0RBoKxe0IH830WmN9FnXifERTq%2bzckHfxyiD%2b/u7bF%2bAhoG3Q4YAyO2jPZwEt0ljswoJkZZFXjSqCgwPIfZx9fsBQDIV4x/lv9gHAL8xlknEAUBMVECUhkHYHyABj5f3uly8x%2b4iDrOdN%2bvMvF6lb2sV2haAgJxgIUq5Yjzo0gnb4Dqhemk0xo9RBfabXKW8KkKodh%2bibNZrX92pVZKnB01yerAHTlPpY3UAq3UoAEiU9Y0KOL%2bO3wPke%2bWvH0C//BPUeQFAlI%2bHw3w0GAIFBPiAGwA4XR2nxd62GS0to1bP24z4fSPq%2bOrC7Px/Yten0%2biGhBBwfOwI4Gqry9xGVQiDzVp1qFxaoTmBnO290Niq/j6AsDQ2Khedk0NyfrQPE2GdwHv89sZ6qw62CeECq9%2bultc61VKpUykW%2bbXlJX5laZEvLuZ4AMADAB4A8ACATydinVQs2klEwu1oMNiOBIKtoM/f8jldvM/hJD6n8BU7k05HjBpdUK/WfGtBIf9x4alQ75BaqaLO67U67vHUDPcj%2baFPjG0LmyPN3S1okDb6kkuzsvRPmpvl/767taFtblZrEBrk4nifnB3hXmGDfgUWk%2bYWToHQBeJXZEuFAr%2bcE5wH%2bSMAksfvEXctQS2fxqqQIF6HDb9AtW2BwLYaDX9lM5l%2bQ3oNigWFbHx0jJ7PzcxyT6Yecz/yH1hNbn%2b7JnaJG1xzqypbLW/0f%2bFyZ%2bun9%2bq132rWN74BKrixVV1Tb1ZWY7X11dXqarFRLS2fVIrL7XXoAcq0EYIyiDkgGW9n49HjZDTUSESCa7GgLx4JeLRBr%2btdcP5PLAb1v9Sr535m8Jr0Gq1MIVcMCU9767n5mXnu//vPOoRFq7EprP5mhWtUSsN79aqssroy9Ky/Ka2Vfry6XPi5nZXlz22UCp9fWUr9ZnEp88VCIf/FXCb1z/KJ5Oezifg/isV8PxcMO37iWf%2bOUqnlbCajzGI0DEOi4x7eeJ1LJJOcWqH8kfr4fwGjcbnmz0GIjQAAAABJRU5ErkJggg==' /%3e%3c/svg%3e"}}},{"node":{"id":"903ff199648c4c7cfc4a06771ba0651b","title":"Bags Spunbond","timeToRead":1,"excerpt":"Bags Spunbond Excerpt.","date":"23 May 2019","path":"/product/bags-spunbond/","image":{"type":"image","mimeType":"image/jpeg","src":"/assets/static/color-2.3df3210.982e15f.jpg","size":{"width":1667,"height":1288},"sizes":"(max-width: 1667px) 100vw, 1667px","srcset":["/assets/static/color-2.1b91758.982e15f.jpg 480w","/assets/static/color-2.3df3210.982e15f.jpg 1024w"],"dataUri":"data:image/svg+xml,%3csvg fill='none' viewBox='0 0 1667 1288' xmlns='http://www.w3.org/2000/svg' xmlns:xlink='http://www.w3.org/1999/xlink'%3e%3cdefs%3e%3cfilter id='__svg-blur-3'%3e%3cfeGaussianBlur in='SourceGraphic' stdDeviation='40'/%3e%3c/filter%3e%3c/defs%3e%3cimage x='0' y='0' filter='url(%23__svg-blur-3)' width='1667' height='1288' xlink:href='data:image/jpeg%3bbase64%2c/9j/2wBDAAYEBQYFBAYGBQYHBwYIChAKCgkJChQODwwQFxQYGBcUFhYaHSUfGhsjHBYWICwgIyYnKSopGR8tMC0oMCUoKSj/2wBDAQcHBwoIChMKChMoGhYaKCgoKCgoKCgoKCgoKCgoKCgoKCgoKCgoKCgoKCgoKCgoKCgoKCgoKCgoKCgoKCgoKCj/wAARCAAxAEADASIAAhEBAxEB/8QAHAAAAgMBAQEBAAAAAAAAAAAAAAYDBAUCAQcI/8QAOBAAAQMDAQUFBgILAAAAAAAAAQIDBAAFESEGEjFBkRNRYYGxFiIjYnGhJMEUJTI0UnKCg6LC8P/EABsBAAEFAQEAAAAAAAAAAAAAAAYAAQMEBwIF/8QAKhEAAgEDAgMHBQAAAAAAAAAAAQIAAwQREiEFMZEGQWFxgcHREyJRofH/2gAMAwEAAhEDEQA/AP1TSxYbrOlX%2beiSsGEtREZG6AUbqU51553s0yPqCGlEnHLzOlJsZxQhtzUABTc%2bSAB3BRAHRIFT0V1A5EqXNQoVIPLf0yB7xxkvIjR3X3TuttpK1HuAGTWNsdPfnWv8a52kpBSpRIAJC0hxPDuCseVVNvZw9kZAYX%2b9thCCP4VYGf8AIdaGVJtW2Qjp0jzIyEjwWgEJ%2bwI6V51StoqAd2wPrn4EnL7ib85ZCENpcLa3VhAUOI5n7Cu4b36RFbd5qGv151lXB/evUNGfdQ8Ef1FClH/WrVocGZbGRlp1RA%2bVRJH3zUSXIa40%2bY9Rg/MslPszObtIfZejKaXusocSXuGoUoJA%2b5PlWnSu7MVcLFf3U4%2bG8422R8iU4PXWmC3SRMgR5KeDraV9RU1KsHqEA8xn9kR6lMqoJ8veJk29THZLsdT3uIdzgJA4KyPQVC2%2bptgMIVhsOF4J%2bcnJPU1QWreu0o/MfU1MTrprRIEUAACBLVnZiSx6zM2plKatMcOKV2MYgNpz%2byAQQOqR0qyq4PXRceZIeUp5sgtqT7uMHeHDxrE27UU2F9XcRUljczbm8mhjj4COpXbPPxlyxqM2oEmaq77KZvCC45vlSu1BIGisbuemlb8ee4tS3EKIU6MLI5j/AI0i3Mg3aLyyDTbbk/CHKs%2bvKtQViVYjv5mGNgdVEat/7KS7i/EdmWyMUNxVgLUkJ1JUNdfKpI16nwYjbEaQUNN4CRupOAT3keNZ1wOL48eZbT%2bdcPq%2bCT4j1p7a7rAAhzsMczy/EIRRRlGVBzLYVmfKPes%2btTBWKsKslzbecUYbpClE5Tg8/rXKrfOQMqiSB/aNbT9RD3iY81GqDup6RW28Odn5PgK5sKv1c15VobTWmfcbW7Eiw33X3BhKAggk48dB50WrZy8xoaEPW2QkgAYwD6GhntAhdk0jO0u8PRtziUrjrdoR4jJFOkUAMpwOVYvs1dpc5hbcJaEtaqLh3OPdnjTQ3aZzbYCo5zjkoH86z2/srpqmpKbEeAMMuGsq0cMcHMT7scXtf8g9TUUk/hz9a3Z%2bzF2kXAyWmEdmUBOFOAK0J5VVlbPXbsi2ILhUTphSSOua4o2N0qgmm3Qwjp3FHSo1jqJ9SNFFFadA%2bBrwUUUo89ooopRQrw0UUop//9k=' /%3e%3c/svg%3e"}}}]}},"context":{}}