{"hash":"d621d543588137146739c13b95cdebbe793e837c","data":{"metadata":{"siteName":"Giftbox Promosindo","siteDescription":"Giftbox Promosindo"},"allPost":{"totalCount":7,"pageInfo":{"totalPages":7,"currentPage":3},"edges":[{"node":{"id":"14e43cb29fa9a6296a6b07a015ff6d5b","title":"How","date":"2019-05-23T00:00:00.000Z","timeToRead":4,"path":"/blog/how/","description":"Blog Two Description"}}]}},"context":{}}