{"hash":"6420411484700014d2b2c9709abc12a8388e44c6","data":{"metadata":{"siteName":"Giftbox Promosindo","siteDescription":"Giftbox Promosindo"},"allPost":{"totalCount":2,"pageInfo":{"totalPages":2,"currentPage":1},"edges":[{"node":{"id":"58e2a11404276af7730f0691eacd629e","title":"Blog Two Title","date":"2019-05-23T00:00:00.000Z","timeToRead":1,"path":"/blog/blog-two-title/","description":"Blog Two Description"}}]}},"context":{}}