{"hash":"56a45e0e729662a5e558ad14f68400657f82acd8","data":{"metadata":{"siteName":"Giftbox Promosindo","siteDescription":"Giftbox Promosindo"},"allPost":{"totalCount":7,"pageInfo":{"totalPages":7,"currentPage":7},"edges":[{"node":{"id":"203c6a8a7e9c75b4a8b21cb7f198f57b","title":"","date":null,"timeToRead":2,"path":"/blog/title/","description":""}}]}},"context":{}}