{"hash":"a76756bcb3ac15bd43aa679e0ad4f592416086dd","data":{"metadata":{"siteName":"Giftbox Promosindo","siteDescription":"Giftbox Promosindo"},"allProduct":{"totalCount":9,"pageInfo":{"totalPages":9,"currentPage":6},"edges":[{"node":{"id":"4508f3f76ca158bb62c58c8927816178","title":"Baby Kids Gift","timeToRead":1,"excerpt":"Baby Kids Gift Standard Excerpt.","date":"23 May 2019","path":"/product/baby-kids-gift/","image":{"type":"image","mimeType":"image/jpeg","src":"/giftbox.co.id/assets/static/_MG_0220.d12e930.5107fae.jpg","size":{"width":700,"height":467},"sizes":"(max-width: 700px) 100vw, 700px","srcset":["/giftbox.co.id/assets/static/_MG_0220.1b91758.5107fae.jpg 480w","/giftbox.co.id/assets/static/_MG_0220.d12e930.5107fae.jpg 700w"],"dataUri":"data:image/svg+xml,%3csvg fill='none' viewBox='0 0 700 467' xmlns='http://www.w3.org/2000/svg' xmlns:xlink='http://www.w3.org/1999/xlink'%3e%3cdefs%3e%3cfilter id='__svg-blur-7'%3e%3cfeGaussianBlur in='SourceGraphic' stdDeviation='40'/%3e%3c/filter%3e%3c/defs%3e%3cimage x='0' y='0' filter='url(%23__svg-blur-7)' width='700' height='467' xlink:href='data:image/jpeg%3bbase64%2c/9j/2wBDAAYEBQYFBAYGBQYHBwYIChAKCgkJChQODwwQFxQYGBcUFhYaHSUfGhsjHBYWICwgIyYnKSopGR8tMC0oMCUoKSj/2wBDAQcHBwoIChMKChMoGhYaKCgoKCgoKCgoKCgoKCgoKCgoKCgoKCgoKCgoKCgoKCgoKCgoKCgoKCgoKCgoKCgoKCj/wAARCAArAEADASIAAhEBAxEB/8QAGgAAAgMBAQAAAAAAAAAAAAAAAgMEBQYBCP/EACkQAAICAgAGAQIHAAAAAAAAAAECAAMEEQUSITFBUXETYQYiUoGh4fH/xAAYAQADAQEAAAAAAAAAAAAAAAABAgMABP/EAB0RAAICAwADAAAAAAAAAAAAAAABAhEDITESQbH/2gAMAwEAAhEDEQA/APSawgIBZUXbHQkPKzeVG5SEQDZY%2boUrBKSj0ZxPiOLw3Ha7KsCqPHck%2bpnn/FtKVpkXVZFGK7cq2PVtfkkdQPv2lLm5VPFOKhbm5san8xXuW9D9%2b/x8yZkZatYFdPpr45h3%2bJecIYklLvw41lyZpPw4aLh3GsXPoFtfMEJ1sqQP8lgrJYu0YMPtM/jKAisx0OnfpLbCbSNr3IOvR0wlJ6ZJYRTruM5pyAqdy13XzepScVxGzaORMiyhh2ZNH%2bD3l9sMpB7HpKi8FWdG363Gi6I5Y2V%2bDw3D4dURUu27va52zH2TGG5TYtakAtvQ8mQrbrDltXYegAZdefck4D0Y%2bW%2bTYhaw1/TBHfW96gk29iYlG6ekT3xsezGFti8zIwKc3cH3JOEdox%2b8hY9f12DkHXk/qMskAUADoIq5sv1rekMhCCDDEIwkWQLlS5dN38H1BEMCYDVmc4tQ1F9VhHTZXY8g/wB6h4VJuIewaT17mhaiq5StqK6%2biIo1op0qgQ2TWJXYFfQajlMACEICo1TDBiRCExj/2Q==' /%3e%3c/svg%3e"}}}]}},"context":{}}