{"hash":"aac89e6f5a7b8f4f3331b5914a3411a16eef5ba1","data":{"metadata":{"siteName":"Giftbox Promosindo","siteDescription":"Giftbox Promosindo"},"allPost":{"totalCount":7,"pageInfo":{"totalPages":7,"currentPage":6},"edges":[{"node":{"id":"14e43cb29fa9a6296a6b07a015ff6d5b","title":"How","date":"2019-05-23T00:00:00.000Z","timeToRead":4,"path":"/blog/how/","description":"Blog Two Description"}}]}},"context":{}}