{"hash":"4b90413b6dfd6443516158db9ddc54e9e3181706","data":{"metadata":{"siteName":"Giftbox Promosindo","siteDescription":"Giftbox Promosindo"},"allProduct":{"totalCount":10,"pageInfo":{"totalPages":4,"currentPage":3},"edges":[{"node":{"id":"903ff199648c4c7cfc4a06771ba0651b","title":"Bags Spunbond","timeToRead":1,"excerpt":"Bags Spunbond Excerpt.","date":"23 May 2019","path":"/product/bags-spunbond/","image":{"type":"image","mimeType":"image/jpeg","src":"/assets/static/color-2.3df3210.982e15f.jpg","size":{"width":1667,"height":1288},"sizes":"(max-width: 1667px) 100vw, 1667px","srcset":["/assets/static/color-2.1b91758.982e15f.jpg 480w","/assets/static/color-2.3df3210.982e15f.jpg 1024w"],"dataUri":"data:image/svg+xml,%3csvg fill='none' viewBox='0 0 1667 1288' xmlns='http://www.w3.org/2000/svg' xmlns:xlink='http://www.w3.org/1999/xlink'%3e%3cdefs%3e%3cfilter id='__svg-blur-6'%3e%3cfeGaussianBlur in='SourceGraphic' stdDeviation='40'/%3e%3c/filter%3e%3c/defs%3e%3cimage x='0' y='0' filter='url(%23__svg-blur-6)' width='1667' height='1288' xlink:href='data:image/jpeg%3bbase64%2c/9j/2wBDAAYEBQYFBAYGBQYHBwYIChAKCgkJChQODwwQFxQYGBcUFhYaHSUfGhsjHBYWICwgIyYnKSopGR8tMC0oMCUoKSj/2wBDAQcHBwoIChMKChMoGhYaKCgoKCgoKCgoKCgoKCgoKCgoKCgoKCgoKCgoKCgoKCgoKCgoKCgoKCgoKCgoKCgoKCj/wAARCAAxAEADASIAAhEBAxEB/8QAHAAAAgMBAQEBAAAAAAAAAAAAAAYDBAUCAQcI/8QAOBAAAQMDAQUFBgILAAAAAAAAAQIDBAAFESEGEjFBkRNRYYGxFiIjYnGhJMEUJTI0UnKCg6LC8P/EABsBAAEFAQEAAAAAAAAAAAAAAAYAAQMEBwIF/8QAKhEAAgEDAgMHBQAAAAAAAAAAAQIAAwQREiEFMZEGQWFxgcHREyJRofH/2gAMAwEAAhEDEQA/AP1TSxYbrOlX%2beiSsGEtREZG6AUbqU51553s0yPqCGlEnHLzOlJsZxQhtzUABTc%2bSAB3BRAHRIFT0V1A5EqXNQoVIPLf0yB7xxkvIjR3X3TuttpK1HuAGTWNsdPfnWv8a52kpBSpRIAJC0hxPDuCseVVNvZw9kZAYX%2b9thCCP4VYGf8AIdaGVJtW2Qjp0jzIyEjwWgEJ%2bwI6V51StoqAd2wPrn4EnL7ib85ZCENpcLa3VhAUOI5n7Cu4b36RFbd5qGv151lXB/evUNGfdQ8Ef1FClH/WrVocGZbGRlp1RA%2bVRJH3zUSXIa40%2bY9Rg/MslPszObtIfZejKaXusocSXuGoUoJA%2b5PlWnSu7MVcLFf3U4%2bG8422R8iU4PXWmC3SRMgR5KeDraV9RU1KsHqEA8xn9kR6lMqoJ8veJk29THZLsdT3uIdzgJA4KyPQVC2%2bptgMIVhsOF4J%2bcnJPU1QWreu0o/MfU1MTrprRIEUAACBLVnZiSx6zM2plKatMcOKV2MYgNpz%2byAQQOqR0qyq4PXRceZIeUp5sgtqT7uMHeHDxrE27UU2F9XcRUljczbm8mhjj4COpXbPPxlyxqM2oEmaq77KZvCC45vlSu1BIGisbuemlb8ee4tS3EKIU6MLI5j/AI0i3Mg3aLyyDTbbk/CHKs%2bvKtQViVYjv5mGNgdVEat/7KS7i/EdmWyMUNxVgLUkJ1JUNdfKpI16nwYjbEaQUNN4CRupOAT3keNZ1wOL48eZbT%2bdcPq%2bCT4j1p7a7rAAhzsMczy/EIRRRlGVBzLYVmfKPes%2btTBWKsKslzbecUYbpClE5Tg8/rXKrfOQMqiSB/aNbT9RD3iY81GqDup6RW28Odn5PgK5sKv1c15VobTWmfcbW7Eiw33X3BhKAggk48dB50WrZy8xoaEPW2QkgAYwD6GhntAhdk0jO0u8PRtziUrjrdoR4jJFOkUAMpwOVYvs1dpc5hbcJaEtaqLh3OPdnjTQ3aZzbYCo5zjkoH86z2/srpqmpKbEeAMMuGsq0cMcHMT7scXtf8g9TUUk/hz9a3Z%2bzF2kXAyWmEdmUBOFOAK0J5VVlbPXbsi2ILhUTphSSOua4o2N0qgmm3Qwjp3FHSo1jqJ9SNFFFadA%2bBrwUUUo89ooopRQrw0UUop//9k=' /%3e%3c/svg%3e"}}},{"node":{"id":"0b88fe89aa82e759a5e1c08ea3a98843","title":"Umbrella Standard","timeToRead":1,"excerpt":"Umbrella Standard Excerpt.","date":"21 May 2019","path":"/product/umbrella-standard/","image":{"type":"image","mimeType":"image/jpeg","src":"/assets/static/umbrella-standard.d12e930.923200f.jpg","size":{"width":700,"height":1050},"sizes":"(max-width: 700px) 100vw, 700px","srcset":["/assets/static/umbrella-standard.1b91758.923200f.jpg 480w","/assets/static/umbrella-standard.d12e930.923200f.jpg 700w"],"dataUri":"data:image/svg+xml,%3csvg fill='none' viewBox='0 0 700 1050' xmlns='http://www.w3.org/2000/svg' xmlns:xlink='http://www.w3.org/1999/xlink'%3e%3cdefs%3e%3cfilter id='__svg-blur-4'%3e%3cfeGaussianBlur in='SourceGraphic' stdDeviation='40'/%3e%3c/filter%3e%3c/defs%3e%3cimage x='0' y='0' filter='url(%23__svg-blur-4)' width='700' height='1050' xlink:href='data:image/jpeg%3bbase64%2c/9j/2wBDAAYEBQYFBAYGBQYHBwYIChAKCgkJChQODwwQFxQYGBcUFhYaHSUfGhsjHBYWICwgIyYnKSopGR8tMC0oMCUoKSj/2wBDAQcHBwoIChMKChMoGhYaKCgoKCgoKCgoKCgoKCgoKCgoKCgoKCgoKCgoKCgoKCgoKCgoKCgoKCgoKCgoKCgoKCj/wAARCABgAEADASIAAhEBAxEB/8QAHAAAAQQDAQAAAAAAAAAAAAAAAgEDBgcABQgE/8QAMxAAAQMCBAQDBgYDAAAAAAAAAQACAwQRBQYSIQcxQWEiUaETFDJxgZEjJEOxwdFCYnL/xAAbAQACAgMBAAAAAAAAAAAAAAAABAEDAgUGB//EACwRAAEDAgMHAgcAAAAAAAAAAAEAAgMEEQUSEwYhIjFBUZFx0RQyYYHB4fH/2gAMAwEAAhEDEQA/AOkEoSLFKEQRBClChCMJxqbCMIQnQUYTbUYQha4IggCMIUpQiCaqJoqaB01RIyKJgu57zYBVjm3iJKZXQYE4xws2dPbxPP8ArfkO/NVSzNiF3J2joJqx2WMbu/QK1gD5FGAfIrmyqzRjlW868SqWNPRkhF/qvM2rq3/HV1Lied5Xb%2bqUNe0cmreM2YkPzSDx%2b106HDzH3RtN%2bRXMLXuvcucT3Ku/hXKJMnU4Frslkafvf%2bVbBV6zstrJPE8DNBCJc%2bbfblb8lb5pTVdW0%2bH0clVWSCOGMXLj%2bw8z2TjeSqniTXz1OOSU2s%2bwpwA1t9gbXJ%2be6tnl0m3SWG0Xxs2newG8%2bi0ubMxT43iEszi%2bOnADYob7AX5nuozK7Y3KMyajfoV5am7SLHZaZ7y43K9CghZC0MYLAIHucPhcQljqZWnxaHD5WKZ1LLqtX2Xvjq4zbW1zfUK4%2bDFZFLgtdTMka50U%2bsNB3Ac0fyFTuBYVVY3icNDQs1TSHmeTR1cewXRmVsBpMu4VHRUYuR4pJSPFI7qT/XRO0Mbi/P0XPbR1UYg0DvcbH0%2bqOtqWUVDUVUvwQxukPcAXVCYvXy1DKqqndeaZxc493FW7xFqPd8pVTb7zOZEPqbn0CpXEj%2bSdt/k391ZWu4g1L7NwARPm6k28f1eQO2TUztQt1Q6/CgcbpFdKmro4WSTTMihY6SR7g1rGi5cTyATbzpNyduv9q2%2bEeWmUs8OL4nERLUNPuGoeHrc/9Ecu1yFnFCZXZQla6ubRwmR/PoO5Uu4eZUjy1hV5mtdiVQAZ3jfT5MHYepUuCSyULdsYGDK1edTzvqJDLIbkqC8QsPrsYwmCHD4xI6KT2r2arOdYEDT5nc7KnMQa5tNNHI1zHs2LXCxBB5ELo90IIUazflGmzBSyA2grSLNqWjf5OHUeqVqKYyHM3mt3hOLtpW6Mg4e/b3XP7SSbAEk7AeamGXeHuM4xolnjFBSn9ScHUR2Zz%2b9laeV8l4XgDWvggE1UBvUTWc76dG/RShrT1VcdF1emKzaInhph9z7e/hRTL3D/AALCA176f32pH6tSA4X7N5D1W7zLgseO5erMIfLJTRVMXs/aQHS%2bPyLSORC2YBSp1rAwWaFzs1RJO7NI4krwYFQVOGUFPRzVzqyKCJsbZJWfiusALucDY/a/dbRN3RArNUJoLHBCHIgUKENiiCVYhCXdYsWIQlSpEqEL/9k=' /%3e%3c/svg%3e"}}},{"node":{"id":"cfcfb6a583c134eb31c3ff255592bd0d","title":"Umbrella Foldable","timeToRead":1,"excerpt":"Umbrella Foldable Excerpt.","date":"21 May 2019","path":"/product/umbrella-foldable/","image":{"type":"image","mimeType":"image/jpeg","src":"/assets/static/umbrella-foldable.a932647.cd013ce.jpg","size":{"width":950,"height":950},"sizes":"(max-width: 950px) 100vw, 950px","srcset":["/assets/static/umbrella-foldable.1b91758.cd013ce.jpg 480w","/assets/static/umbrella-foldable.a932647.cd013ce.jpg 950w"],"dataUri":"data:image/svg+xml,%3csvg fill='none' viewBox='0 0 950 950' xmlns='http://www.w3.org/2000/svg' xmlns:xlink='http://www.w3.org/1999/xlink'%3e%3cdefs%3e%3cfilter id='__svg-blur-5'%3e%3cfeGaussianBlur in='SourceGraphic' stdDeviation='40'/%3e%3c/filter%3e%3c/defs%3e%3cimage x='0' y='0' filter='url(%23__svg-blur-5)' width='950' height='950' xlink:href='data:image/jpeg%3bbase64%2c/9j/2wBDAAYEBQYFBAYGBQYHBwYIChAKCgkJChQODwwQFxQYGBcUFhYaHSUfGhsjHBYWICwgIyYnKSopGR8tMC0oMCUoKSj/2wBDAQcHBwoIChMKChMoGhYaKCgoKCgoKCgoKCgoKCgoKCgoKCgoKCgoKCgoKCgoKCgoKCgoKCgoKCgoKCgoKCgoKCj/wAARCABAAEADASIAAhEBAxEB/8QAGwABAAIDAQEAAAAAAAAAAAAAAAcIBAUGAwn/xAAvEAABAwMCAwcDBQEAAAAAAAABAgMEAAURBhIHITEIEyJBUWFxFDKBFUJEkbGh/8QAGAEBAAMBAAAAAAAAAAAAAAAAAAECAwT/xAAlEQACAgEBBwUAAAAAAAAAAAAAAQIRAwQFEhMhMUGRFCJCcYH/2gAMAwEAAhEDEQA/ALU0pSgFKUoBSlKAUpSgFK4zi5rF3Q2ipF4isNSJQdbZabdJ2FS1Y5459M1D1v7RtwuM6PGj2GI2VgNLWt5Rw7nxEAftwMAdfPPlUpWCylRbx11pqbQ1mZudkgRZFsJ7uTJUFLXGUT4SU5A2npnyPXrXM3TjXc0WpK41sitSX3Sy0orKw2QTkkcs8gfSu70Dq1esrclNxhRw28haHGyNwVjkQQeRB58qjJNYMihPq6fk04Mnp1qfi5OP6ivVq486pXN779Xjvbv40iMhKPxgA/8AakHS/HmYqelOpLfG%2bjUMFyGlQWg%2bu1SjuHtyPzWt4u9nRqc8blw/QzFeVlT1udc2tKPl3RI8JJ8idvxVdpwv%2bkLmu2XqHIjSG/ujykkHHqk%2bY9wSK6ozxy5SRztSR9C7Fe7bfoSZdomMy2D%2b5tWSn2I6g%2bxrY1QbS%2bsHosxEm1TX7fOSeW1e0n2z0UPY1cvhrrWHrSxJkNFLdwZCUy43m2v1Hqk4JB/HUGs8uLdW9F2i0ZX1I77W8staEtMYfyLojPwltZ/3FVf0YtP6pHUTzD6lA/3VsO0hovUGs7RY2dNRUSXIspbrqVOpbIBRgHxEA86hC1cA%2bIUJ95TceI25Hwptf1SCl0kjO3zGBk8wKzi6smuaPOc5usSVHq1cD%2bMlYqXuAs0bQ2VfbKWj%2b84/2o6vHCTX0SG7GlSrSiM5tkd73niW7jcW0gJJzkkZxjlXZcKtA6%2bsd3tzi129q0qdQ7K74lTowckJ5c%2bWAPfNZa%2bPHywyY%2byS8HRHPWz/AEjXu4m%2bn2qqr7LDvuoYZW66oIbQkqUo9AAMk1yt90bZtaWV1nVFvRJEk70FQ2uRxjw7FdUkDrjzJzW51DbHrpDZajzXIim30PKCUpUl4JOe7WCPsPnjB96z4q1ux21vNFlwjKmyQdp9MjrVzAq3rXswSWEuSNGXYSEjmIdwASv4S4kYJ%2bQPmvbgJYdc6O1vFRqDT9wZt8ptUZyQNriUjqneUk8goDn71aOlXU2lRFClKVQkxZcBiVIjPPJJXHUVIwogZPr69AfkCsqlKAUpSgFKUoD/2Q==' /%3e%3c/svg%3e"}}}]}},"context":{}}