{"hash":"20f6812ec2777c2b820546b8f091ff7ba5bcddd4","data":{"metadata":{"siteName":"Giftbox Promosindo","siteDescription":"Giftbox Promosindo"},"allPost":{"totalCount":7,"pageInfo":{"totalPages":7,"currentPage":4},"edges":[{"node":{"id":"a6e523532bab485be781c8875624624b","title":"Blog One Title","date":"2019-05-23T00:00:00.000Z","timeToRead":1,"path":"/blog/blog-one-title/","description":"Blog One Description"}}]}},"context":{}}