{"hash":"4b90413b6dfd6443516158db9ddc54e9e3181706","data":{"metadata":{"siteName":"Giftbox Promosindo","siteDescription":"Giftbox Promosindo"},"allProduct":{"totalCount":10,"pageInfo":{"totalPages":4,"currentPage":2},"edges":[{"node":{"id":"7bc17f72845ecc69aba144417d5b2caa","title":"Pen","timeToRead":1,"excerpt":"Pen Excerpt.","date":"23 May 2019","path":"/product/pen/","image":{"type":"image","mimeType":"image/jpeg","src":"/assets/static/pen.bd64798.1a1e920.jpg","size":{"width":1000,"height":1000},"sizes":"(max-width: 1000px) 100vw, 1000px","srcset":["/assets/static/pen.1b91758.1a1e920.jpg 480w","/assets/static/pen.bd64798.1a1e920.jpg 1000w"],"dataUri":"data:image/svg+xml,%3csvg fill='none' viewBox='0 0 1000 1000' xmlns='http://www.w3.org/2000/svg' xmlns:xlink='http://www.w3.org/1999/xlink'%3e%3cdefs%3e%3cfilter id='__svg-blur-2'%3e%3cfeGaussianBlur in='SourceGraphic' stdDeviation='40'/%3e%3c/filter%3e%3c/defs%3e%3cimage x='0' y='0' filter='url(%23__svg-blur-2)' width='1000' height='1000' xlink:href='data:image/jpeg%3bbase64%2c/9j/2wBDAAYEBQYFBAYGBQYHBwYIChAKCgkJChQODwwQFxQYGBcUFhYaHSUfGhsjHBYWICwgIyYnKSopGR8tMC0oMCUoKSj/2wBDAQcHBwoIChMKChMoGhYaKCgoKCgoKCgoKCgoKCgoKCgoKCgoKCgoKCgoKCgoKCgoKCgoKCgoKCgoKCgoKCgoKCj/wAARCABAAEADASIAAhEBAxEB/8QAGwABAAIDAQEAAAAAAAAAAAAAAAcIAQMGBAL/xAAyEAABAwMCBQIDBwUAAAAAAAABAgMEAAURBkEHEiExURMiFEKhFiUyYYGS0TNScXKR/8QAFwEBAQEBAAAAAAAAAAAAAAAAAAIBA//EAB0RAAICAgMBAAAAAAAAAAAAAAABAhESIQMTMVH/2gAMAwEAAhEDEQA/ALU0pSgFKVhSghJUogJAySdqAzSuOgapXedSMwIDSjDUgvh5Pf0h0Cz%2bSz0SO5Hu/IdjUqV2a1QpSlUYKUpQCoj4xavVk6dtaHJJWtDMptk4VIdX/TiJOxUPcs/Kj/auk4tcQoPD3T6ZklPry3lcrEcKCSoDHMonYJH1IG9c5wh0TAXO%2b3TnxxeuaDIiRJucxA4SVq69SpYx1O2%2bCKlvdGr6dpw/027p6zfeL4lXiUQ7NfAwkrx0QgbIQPakfr3Jrp6Uqkq0jBSlKAV4r1c4tmtUq43B0NRIzZccWdgPHk7Aea9tRNxm09fteT7XpqzSW4tmDnq3WQFe9ofKAPmOM4HkgntWXQI00baJvHDiVJ1Jf2lDStsdCEMKOUuqScoYHlI/Es7k436WFl6tsUCU5DfmttvMnkUjlPtOO3avZpqxW/TViiWizx0x4MVsNtoH1JO5J6k7k1EOrGWTq66qcbQol/uceBUck3BWi4RyZJ41rYD2uCP2n%2bKHWtgHe4I/ar%2bKh52Iypo8kdvrvzBP1FZjRY7TIDjLfNndYNcu9l9aJgb1pYHHUNpuCOZaglPsVjJOB1xXRVAHwbL10tbbTGCZbRJT1x7h3qfxXXjm5%2bkTjiK1Ro7UdKg0nHMorUd1E9yTW2ldCBVWda8WYjOor9aZNglOhuW8wtxmZ6ZVhRTkEJyOg81aatBhxisqLDRUTknkGTWOKlpmp0Uxgaw09EucWazpW8LcYcDqUuXRa0EjtkFJzX3fNbwbtdZFyfsuoG33lBZSzceRCcAAYHp9Ogq5wjsjs02P8JFZ9JH9if8AgrMEMioMDi45bo3psaeuL5SrnSuVKK1A9%2b4bHgVbuC8qRCYeWkJU42lZSNiQDitoQkdgB%2blZpGKjpBtv0//Z' /%3e%3c/svg%3e"}}},{"node":{"id":"f9d5c56fb730b2d52160833898030c09","title":"Gift Set","timeToRead":1,"excerpt":"Gift Set Excerpt.","date":"23 May 2019","path":"/product/gift-set/","image":{"type":"image","mimeType":"image/jpeg","src":"/assets/static/IMG_2254.36a08ae.3873f6c.jpg","size":{"width":640,"height":480},"sizes":"(max-width: 640px) 100vw, 640px","srcset":["/assets/static/IMG_2254.1b91758.3873f6c.jpg 480w","/assets/static/IMG_2254.36a08ae.3873f6c.jpg 640w"],"dataUri":"data:image/svg+xml,%3csvg fill='none' viewBox='0 0 640 480' xmlns='http://www.w3.org/2000/svg' xmlns:xlink='http://www.w3.org/1999/xlink'%3e%3cdefs%3e%3cfilter id='__svg-blur-0'%3e%3cfeGaussianBlur in='SourceGraphic' stdDeviation='40'/%3e%3c/filter%3e%3c/defs%3e%3cimage x='0' y='0' filter='url(%23__svg-blur-0)' width='640' height='480' xlink:href='data:image/jpeg%3bbase64%2c/9j/2wBDAAYEBQYFBAYGBQYHBwYIChAKCgkJChQODwwQFxQYGBcUFhYaHSUfGhsjHBYWICwgIyYnKSopGR8tMC0oMCUoKSj/2wBDAQcHBwoIChMKChMoGhYaKCgoKCgoKCgoKCgoKCgoKCgoKCgoKCgoKCgoKCgoKCgoKCgoKCgoKCgoKCgoKCgoKCj/wAARCAAwAEADASIAAhEBAxEB/8QAHAAAAgMBAAMAAAAAAAAAAAAABQYEBwgDAAEC/8QAMxAAAgEDAgIIBAUFAAAAAAAAAQIDAAQFESEGEgcTMUFRcZGhIkJhgRQyYrHBCCSS0dL/xAAaAQACAwEBAAAAAAAAAAAAAAAEBQADBgEC/8QAJREAAgIBBAEDBQAAAAAAAAAAAQIAAwQFERIhMRNh4UJRkaGx/9oADAMBAAIRAxEAPwC7zddZoG0IqHk8ZjsshjyFnBcRkaESIDVd4zIzTrdLJLIZILmWI/Ee5tR7EVPWd9fzt/lRVmYqkjjGVOgtYocWefb5gjijoRweSDyYsvYzHcKp1T0NU1xZ0VZ/As7LELqAfNFufStArMe9j9zXvrPr70FZlKfphqaAw82fr5mRmxl%2bjlTZXXMPCFj/ABUyw4gy2JuFMc8qyQtssmuqH6HZlPkRWruZtCQW08RrSN0gcA2XE6td2/LbZYDaUD4ZQO5/%2bu3zqpbwTsZL9EZEJrbc/aCuCv6hMrjlSHLyzTINuaVevX12cereVOee6TLXi60dLaZWtyhUrZzFguum7poH7de1fvWbsxwrlMTMyX1tJFp8xXY%2bRGxoG6tDICCysp2bsI8jVrIGGxiFlI6M0VgsjzcU5y1OxPVTr9fhAJ9hTQkvZVZC8/C8c4%2bcnRLqEwN9SDt%2b9P8AHLUyxxtYTXaPZ6mKvt1%2bIatbtoJ0lj5edDqOYAj0NS5MrcPKzqY4ye5EAoGkn1rosmu1AliI29JGO5EJtezvHyPNIU7OXm29K4mWht1f29qvNc3EUI/W4FLuR48wVnqDdmZvCJdfc6V47MjcKx31HJpomjaO5iSeBho0bgEfbwqpekfhnExu0tlb9Tzbjl2HpXmS6VIxqLGwJ8Gmf%2bBQO%2b4ky2YtOsyAijtGGsSKgBY9mvjp%2b9F0s4626mc1VMWwc1bZ/wCznxDdFFs7oHQwTK2vgDsabpuO8RbxqeseVyAdEXQa%2bZpHyw6/Hzp2kodPOkP8UQNANDR%2bfXycERdpuoHERkls33SdJuLGzRf1SEt/qlrJcd5m7BD3zRofli%2bEe1JBkkkOg1NE8dw9k8iw6q3cKfnf4R70GuODLrdZubx1Pm6y0kzFpJJJGPeza1Da6lc6INz3Cn7EdHsXwtkrot4pFt7mnjCYPE4wa2llGrj53HMx%2b5olcfaLLMyx/LSloMLk7kK728qRMfzuCo0pgyF0WkVO5AFAHgKeOL7pY4j2dlVlLc/3Bc1x149SsHfuf//Z' /%3e%3c/svg%3e"}}},{"node":{"id":"4508f3f76ca158bb62c58c8927816178","title":"Baby Kids Gift","timeToRead":1,"excerpt":"Baby Kids Gift Standard Excerpt.","date":"23 May 2019","path":"/product/baby-kids-gift/","image":{"type":"image","mimeType":"image/jpeg","src":"/assets/static/0162.d12e930.e4539f8.jpg","size":{"width":700,"height":467},"sizes":"(max-width: 700px) 100vw, 700px","srcset":["/assets/static/0162.1b91758.e4539f8.jpg 480w","/assets/static/0162.d12e930.e4539f8.jpg 700w"],"dataUri":"data:image/svg+xml,%3csvg fill='none' viewBox='0 0 700 467' xmlns='http://www.w3.org/2000/svg' xmlns:xlink='http://www.w3.org/1999/xlink'%3e%3cdefs%3e%3cfilter id='__svg-blur-1'%3e%3cfeGaussianBlur in='SourceGraphic' stdDeviation='40'/%3e%3c/filter%3e%3c/defs%3e%3cimage x='0' y='0' filter='url(%23__svg-blur-1)' width='700' height='467' xlink:href='data:image/jpeg%3bbase64%2c/9j/2wBDAAYEBQYFBAYGBQYHBwYIChAKCgkJChQODwwQFxQYGBcUFhYaHSUfGhsjHBYWICwgIyYnKSopGR8tMC0oMCUoKSj/2wBDAQcHBwoIChMKChMoGhYaKCgoKCgoKCgoKCgoKCgoKCgoKCgoKCgoKCgoKCgoKCgoKCgoKCgoKCgoKCgoKCgoKCj/wAARCAArAEADASIAAhEBAxEB/8QAHAAAAgIDAQEAAAAAAAAAAAAABAYDBQECBwAI/8QAMRAAAgECBAMFBwUBAAAAAAAAAQIDABEEBRIhBhMxQVFhcZEHIjKBocHRFCNCg7Hh/8QAGAEAAwEBAAAAAAAAAAAAAAAAAQIDBAX/xAAmEQABBAEDAgcBAAAAAAAAAAABAAIDEQQSITEycRU0UWGBofDR/9oADAMBAAIRAxEAPwD6MhFgKKQUPrSGJpJWVI1F2Y7ACvLitagwQySA9GPuKfmfsKFgKgaTuEYBWTsLnYd9B6p3JDSxxb2sgufU/itEWB5LNqmN7BnJYfihqREanOKhvZGMh7oxq/zatHnlUav07aB1Goard4A6%2btaYqXl203KAjWEW5A8q21sCFBNuoJFwR59lLqTaQBdKZHWWMPGwZG6EVmlfOOKMpyWSSSTHQ8y93gjOrX47dG8fWmSGZZoY5FBCuoYBhY2IvvRa8O2CMsD42h5BAPFqF0WeCSKQXR1KnyIqr4bxUsmBkwUjlcVgpOUx6kqOnqKPjk6Uj8fZ8/BuPjzmKAzJi1MDRjYFwLgk%2bVTlOmnLRhtM1wjk7juP6L%2bk%2bclV%2bIGQ97G9V%2bbcR5TkqF8yx0ENv4FrsfkK4Lj%2bPuLuKJWgy7mRRHbl4RSLDxas5ZwBj8ZIJ87xnKJ3Kq3MkPzOw%2btRMxPQF0fDY4t8uWvYc/vhPmce1zDl5UyDASYmRV1GWQWAA7bDspYOYcZ8XG%2bqaLCt/VHb71f5Dwvl2UYnnYcOzadP7h1Hx%2b3pTfAjvbaw8aQNfJ1FAZ0GN5eMX6nc/uyUeHfZ5AMVFJmuKfEOGDFI/dXbfcnc/Suq67GqrCKIjquS1utGq961xRhg2XLysuXKdqlNoSOWgeJ8uwuc5NJBjYUmSNhMqt0uv/L1NH2UUigqQQCCLGmc2xSg1xadQSNAsOFjEOFiVFHRI1sPQUVDFJIQXOkdw61YYrDxQyssUaqL9BUaDepiIDlMZCVLh40T4Rv39tWEV/KhoQBRcdVApJanj2olDQy1IppkCv/Z' /%3e%3c/svg%3e"}}}]}},"context":{}}