{"hash":"be410cd3cd66eca5be950e5171070a881eff8dec","data":{"metadata":{"siteName":"Giftbox Promosindo","siteDescription":"Giftbox Promosindo"},"allPost":{"totalCount":7,"pageInfo":{"totalPages":7,"currentPage":2},"edges":[{"node":{"id":"14e43cb29fa9a6296a6b07a015ff6d5b","title":"How","date":"2019-05-23T00:00:00.000Z","timeToRead":4,"path":"/blog/how/","description":"Blog Two Description"}}]}},"context":{}}