{"hash":"6d2b672287d220fd9be3c8866811aa39625f53d1","data":{"metadata":{"siteName":"Giftbox Promosindo","siteDescription":"Giftbox Promosindo"},"allProduct":{"totalCount":5,"pageInfo":{"totalPages":5,"currentPage":5},"edges":[{"node":{"id":"6685684d75580355792df6a4e486974f","title":"Umbrella","timeToRead":3,"description":"Markdown post content stress test. See how your post content is being styled with Tailwind CSS.","date":"21 May 2019","path":"/product/umbrella/","image":{"type":"image","mimeType":"image/jpeg","src":"/giftbox.co.id/assets/static/umbrella-standard.a932647.eefaf1e.jpg","size":{"width":950,"height":950},"sizes":"(max-width: 950px) 100vw, 950px","srcset":["/giftbox.co.id/assets/static/umbrella-standard.1b91758.eefaf1e.jpg 480w","/giftbox.co.id/assets/static/umbrella-standard.a932647.eefaf1e.jpg 950w"],"dataUri":"data:image/svg+xml,%3csvg fill='none' viewBox='0 0 950 950' xmlns='http://www.w3.org/2000/svg' xmlns:xlink='http://www.w3.org/1999/xlink'%3e%3cdefs%3e%3cfilter id='__svg-blur-9'%3e%3cfeGaussianBlur in='SourceGraphic' stdDeviation='40'/%3e%3c/filter%3e%3c/defs%3e%3cimage x='0' y='0' filter='url(%23__svg-blur-9)' width='950' height='950' xlink:href='data:image/jpeg%3bbase64%2c/9j/2wBDAAYEBQYFBAYGBQYHBwYIChAKCgkJChQODwwQFxQYGBcUFhYaHSUfGhsjHBYWICwgIyYnKSopGR8tMC0oMCUoKSj/2wBDAQcHBwoIChMKChMoGhYaKCgoKCgoKCgoKCgoKCgoKCgoKCgoKCgoKCgoKCgoKCgoKCgoKCgoKCgoKCgoKCgoKCj/wAARCABAAEADASIAAhEBAxEB/8QAGwABAAIDAQEAAAAAAAAAAAAAAAcIAgUGAwT/xAA0EAACAQMCBAMFBgcAAAAAAAABAgMABBEFIQYSMUEHE4EUUWFxkQgVIkJisSQyNFJjwdH/xAAaAQEAAgMBAAAAAAAAAAAAAAAABAUBAwYC/8QAJxEAAgICAQIEBwAAAAAAAAAAAAECAwQREgUhMVGRsSJBYXGBodH/2gAMAwEAAhEDEQA/ALU0pSgFKUoBSlKAUpSgOf4wsdQvLWNrHVJbCCASSzeSAHkIQ8gDHoObc%2b8bVHOn8dcQ6KbJtQX75sZkV5DHGPMjDOUGGGASdiQQOp36VMcyh4mVlDqwwVboQexqn9/eyaXrfFMtldMEsbjlt2b8KjkZiBy%2b4HtXiU%2bLS8yTRjO6MpJ649/0/wCFneFeN9G4lgDWE7rPgk20q8sm3XA7%2bma5XijxfsdFvZbOLSNQluo9mWdfIA%2buTj0rgPBvWZ5uO7CyvIkle6jeVp8BGDRxAkFe%2b57dMEVOXFfCulcUWiwapBzFDlJkwJE%2bTY6fDpSxTcU4dtrfqYwbcZyUr4tx%2bhGNj43SyTfxGhr5X%2bO4OR9VxXZ6T4naBqMbjnnt51TKxTIAXP8AapBIJzt2qNuLPC7U9GV7jSc6jZjchFxKg%2bK/m9PpUfFmViDkEHBB2x8Kr3kXVPUzrI9IwM2vnjvX2fumXAiZmiRnXkcgErnOD7s1lUD%2bGniOdJnt9I1yUtYSHlinY5MBPY/p/b5VPAORtU6q1Wx2jl87BswrOE/w/MxkOEJ91Uw4sTF7xdD%2baXUzCB83H/aubcsq28rOQFCkknsMVTzirT7%2bTiTVIUjErXGqtKsucqR/Mpz6D0NLE%2bSa%2bW/YY9qrotW%2b7S0dz9ni3S68RNTvCuRb6aAhPYyzFv2WrHVDf2cuHJ9KtdfvrzlM0s8dmhHdIYxv6s7fSpfvJvZ7SaYI0hjRn5F6tgZwKk265aj4LS9Cupjxgkzy1G4a3tx5QDXEh8uJT3Y/6G5PwBrl%2bI/DzRtcswJUMN%2bB/WRAB3bqS46NknO/oRW20CeTV5PvSVAkHIEtlwd9hzvuAcE7DYbLn81bytMoqa1JEqm%2byiXOp6ZVnjbgLWdBkbz7Z7m0QZ9pgUsmP1d19frU4%2bD2tPrXAli87l7i1zayMTkkp0PqpWu1IBGDuK1%2bmaNY6XPdSafbpb%2b1MJJUjGFZwMc2OgJGM464rTXQqpbi%2bxY5nVXm0qF0fiXg0fdKiyxtHIAyMCpB7g14Lp9ovlYtocxbISgJXbGx%2bQr6aVIKkwiijiXliRUXOcKMCs6UoBSlKAUpSgP/2Q==' /%3e%3c/svg%3e"}}}]}},"context":{}}