{"hash":"3f38a6b1a839cf93653fb22630c76b5b282d1e71","data":{"metadata":{"siteName":"Giftbox Promosindo","siteDescription":"Giftbox Promosindo"},"allProduct":{"totalCount":9,"pageInfo":{"totalPages":9,"currentPage":9},"edges":[{"node":{"id":"df29e39dfdebe9ef766c09efdf84ff53","title":"Veger Powerbank","timeToRead":1,"excerpt":"Power Bank Veger Excerpt.","date":"21 May 2019","path":"/product/veger-powerbank/","image":{"type":"image","mimeType":"image/jpeg","src":"/giftbox.co.id/assets/static/powerbank-veger.3df3210.314b833.jpg","size":{"width":1600,"height":1600},"sizes":"(max-width: 1600px) 100vw, 1600px","srcset":["/giftbox.co.id/assets/static/powerbank-veger.1b91758.314b833.jpg 480w","/giftbox.co.id/assets/static/powerbank-veger.3df3210.314b833.jpg 1024w"],"dataUri":"data:image/svg+xml,%3csvg fill='none' viewBox='0 0 1600 1600' xmlns='http://www.w3.org/2000/svg' xmlns:xlink='http://www.w3.org/1999/xlink'%3e%3cdefs%3e%3cfilter id='__svg-blur-10'%3e%3cfeGaussianBlur in='SourceGraphic' stdDeviation='40'/%3e%3c/filter%3e%3c/defs%3e%3cimage x='0' y='0' filter='url(%23__svg-blur-10)' width='1600' height='1600' xlink:href='data:image/jpeg%3bbase64%2c/9j/2wBDAAYEBQYFBAYGBQYHBwYIChAKCgkJChQODwwQFxQYGBcUFhYaHSUfGhsjHBYWICwgIyYnKSopGR8tMC0oMCUoKSj/2wBDAQcHBwoIChMKChMoGhYaKCgoKCgoKCgoKCgoKCgoKCgoKCgoKCgoKCgoKCgoKCgoKCgoKCgoKCgoKCgoKCgoKCj/wAARCABAAEADASIAAhEBAxEB/8QAGgABAQADAQEAAAAAAAAAAAAAAAYCBAUDCP/EACkQAAIBAwIFAwUBAAAAAAAAAAABAwIEEQUxEiFRcbEyNYETFDRhkUH/xAAUAQEAAAAAAAAAAAAAAAAAAAAA/8QAFBEBAAAAAAAAAAAAAAAAAAAAAP/aAAwDAQACEQMRAD8A%2bqQAAADaSbbwkABzbvWIoLqCCOC6uHLz44Y8x0U9aq3hLtnP6N%2bGWmaNV0bMDMAAAABr39x9tbVS9Gl/WTSVCv5b1y3Us0iaVMk9TjoTxypo9K23w3%2bzu6/TxaXLnrT5J%2bn0oD1kmrr3fLod3RfwKO9Xknii0b2%2bPu/IG6AAAAA0dbWdMm%2bPKJyn0opdZ9sn7LyiZp5RrsBkUmke3w/Plk/ZWd1c1ZpSdL/3GKV87sp7WH6FvHFnPCsZ6geoAAAADC4ipnhrikzw1LDwaNrpMEOHJxTNbce38OiACWFhbAAAAAP/2Q==' /%3e%3c/svg%3e"}}}]}},"context":{}}