{"hash":"6d2b672287d220fd9be3c8866811aa39625f53d1","data":{"metadata":{"siteName":"Giftbox Promosindo","siteDescription":"Giftbox Promosindo"},"allProduct":{"totalCount":5,"pageInfo":{"totalPages":5,"currentPage":4},"edges":[{"node":{"id":"f5455193939138f25b85ffc3fb73b497","title":"Veger Powerbank","timeToRead":3,"description":"Markdown post content stress test. See how your post content is being styled with Tailwind CSS.","date":"21 May 2019","path":"/product/veger-powerbank/","image":{"type":"image","mimeType":"image/jpeg","src":"/giftbox.co.id/assets/static/powerbank-veger.3df3210.314b833.jpg","size":{"width":1600,"height":1600},"sizes":"(max-width: 1600px) 100vw, 1600px","srcset":["/giftbox.co.id/assets/static/powerbank-veger.1b91758.314b833.jpg 480w","/giftbox.co.id/assets/static/powerbank-veger.3df3210.314b833.jpg 1024w"],"dataUri":"data:image/svg+xml,%3csvg fill='none' viewBox='0 0 1600 1600' xmlns='http://www.w3.org/2000/svg' xmlns:xlink='http://www.w3.org/1999/xlink'%3e%3cdefs%3e%3cfilter id='__svg-blur-8'%3e%3cfeGaussianBlur in='SourceGraphic' stdDeviation='40'/%3e%3c/filter%3e%3c/defs%3e%3cimage x='0' y='0' filter='url(%23__svg-blur-8)' width='1600' height='1600' xlink:href='data:image/jpeg%3bbase64%2c/9j/2wBDAAYEBQYFBAYGBQYHBwYIChAKCgkJChQODwwQFxQYGBcUFhYaHSUfGhsjHBYWICwgIyYnKSopGR8tMC0oMCUoKSj/2wBDAQcHBwoIChMKChMoGhYaKCgoKCgoKCgoKCgoKCgoKCgoKCgoKCgoKCgoKCgoKCgoKCgoKCgoKCgoKCgoKCgoKCj/wAARCABAAEADASIAAhEBAxEB/8QAGgABAQADAQEAAAAAAAAAAAAAAAYCBAUDCP/EACkQAAIBAwIFAwUBAAAAAAAAAAABAwIEEQUxEiFRcbEyNYETFDRhkUH/xAAUAQEAAAAAAAAAAAAAAAAAAAAA/8QAFBEBAAAAAAAAAAAAAAAAAAAAAP/aAAwDAQACEQMRAD8A%2bqQAAADaSbbwkABzbvWIoLqCCOC6uHLz44Y8x0U9aq3hLtnP6N%2bGWmaNV0bMDMAAAABr39x9tbVS9Gl/WTSVCv5b1y3Us0iaVMk9TjoTxypo9K23w3%2bzu6/TxaXLnrT5J%2bn0oD1kmrr3fLod3RfwKO9Xknii0b2%2bPu/IG6AAAAA0dbWdMm%2bPKJyn0opdZ9sn7LyiZp5RrsBkUmke3w/Plk/ZWd1c1ZpSdL/3GKV87sp7WH6FvHFnPCsZ6geoAAAADC4ipnhrikzw1LDwaNrpMEOHJxTNbce38OiACWFhbAAAAAP/2Q==' /%3e%3c/svg%3e"}}}]}},"context":{}}