{"hash":"97ae3c50cb9a21126d88c4252330650cac1782f7","data":{"metadata":{"siteName":"Giftbox Promosindo","siteDescription":"Giftbox Promosindo"},"allPost":{"totalCount":7,"pageInfo":{"totalPages":7,"currentPage":5},"edges":[{"node":{"id":"6f6f23d096b4f0e4f75fc6dcb6a4ed2d","title":"Diff","date":"2019-05-23T00:00:00.000Z","timeToRead":5,"path":"/blog/diff/","description":"Blog One Description"}}]}},"context":{}}